{"count":68,"next":"http://attendance.test/personnel/api/employees/?page=2","previous":null,"msg":"","code":0,"data":[{"id":19,"emp_code":"113","first_name":"Hawwa Haseena","last_name":null,"nickname":"","format_name":"113 Hawwa Haseena","photo":"","full_name":"Hawwa Haseena ","device_password":null,"card_no":"2340852","department":{"id":11,"dept_code":"11","dept_name":"HOD's"},"position":null,"hire_date":"2023-07-06","gender":null,"birthday":null,"verify_mode":0,"emp_type":null,"contact_tel":"","office_tel":null,"mobile":"","national":"","city":"","address":"","postcode":"","email":"","enroll_sn":"","ssn":null,"religion":"","attemployee":{"id":19,"enable_attendance":true,"enable_overtime":true,"enable_holiday":true,"enable_schedule":true},"dev_privilege":0,"area":[{"id":3,"area_code":"3","area_name":"AUTHORIZED AREA"}],"app_status":0,"app_role":1,"update_time":"2024-08-11 16:15:21","fingerprint":"Ver 10:2","face":"-","palm":"-","vl_face":"-","vl_palm":"-","vl_face_photo":"-"},{"id":20,"emp_code":"117","first_name":"Ammaru Ahmed Hussain","last_name":"","nickname":"","format_name":"117 Ammaru Ahmed Hussain","photo":"","full_name":"Ammaru Ahmed Hussain ","device_password":"","card_no":"2290444","department":{"id":11,"dept_code":"11","dept_name":"HOD's"},"position":null,"hire_date":"2023-07-06","gender":null,"birthday":null,"verify_mode":0,"emp_type":null,"contact_tel":"","office_tel":null,"mobile":"","national":"","city":"","address":"","postcode":"","email":"ammaru@visitmaldives.com","enroll_sn":"","ssn":null,"religion":"","attemployee":{"id":20,"enable_attendance":true,"enable_overtime":true,"enable_holiday":true,"enable_schedule":true},"dev_privilege":14,"area":[{"id":3,"area_code":"3","area_name":"AUTHORIZED AREA"}],"app_status":0,"app_role":1,"update_time":"2024-09-22 10:17:02","fingerprint":"Ver 10:1","face":"-","palm":"-","vl_face":"-","vl_palm":"-","vl_face_photo":"-"},{"id":2,"emp_code":"12","first_name":"Aminath Lamsa","last_name":null,"nickname":"","format_name":"12 Aminath Lamsa","photo":"","full_name":"Aminath Lamsa ","device_password":null,"card_no":"6160383","department":{"id":7,"dept_code":"7","dept_name":"Administration"},"position":null,"hire_date":"2024-08-06","gender":null,"birthday":null,"verify_mode":0,"emp_type":null,"contact_tel":"","office_tel":null,"mobile":"","national":"","city":"","address":"","postcode":"","email":"","enroll_sn":"","ssn":null,"religion":"","attemployee":{"id":2,"enable_attendance":true,"enable_overtime":true,"enable_holiday":true,"enable_schedule":true},"dev_privilege":0,"area":[{"id":3,"area_code":"3","area_name":"AUTHORIZED AREA"}],"app_status":0,"app_role":1,"update_time":"2024-10-08 09:14:07","fingerprint":"Ver 10:2","face":"-","palm":"-","vl_face":"-","vl_palm":"-","vl_face_photo":"-"},{"id":21,"emp_code":"122","first_name":"Khadheeja Rashaa","last_name":null,"nickname":"","format_name":"122 Khadheeja Rashaa","photo":"","full_name":"Khadheeja Rashaa ","device_password":null,"card_no":"2086087","department":{"id":11,"dept_code":"11","dept_name":"HOD's"},"position":null,"hire_date":"2024-08-06","gender":null,"birthday":null,"verify_mode":0,"emp_type":null,"contact_tel":"","office_tel":null,"mobile":"","national":"","city":"","address":"","postcode":"","email":"","enroll_sn":"BKPU183460045","ssn":null,"religion":"","attemployee":{"id":21,"enable_attendance":true,"enable_overtime":true,"enable_holiday":true,"enable_schedule":true},"dev_privilege":0,"area":[{"id":3,"area_code":"3","area_name":"AUTHORIZED AREA"}],"app_status":0,"app_role":1,"update_time":"2024-11-24 09:21:48","fingerprint":"Ver 10:1","face":"-","palm":"-","vl_face":"-","vl_palm":"-","vl_face_photo":"-"},{"id":23,"emp_code":"124","first_name":"Aishath Shirufath Ali","last_name":null,"nickname":"","format_name":"124 Aishath Shirufath Ali","photo":"","full_name":"Aishath Shirufath Ali ","device_password":null,"card_no":"2340857","department":{"id":12,"dept_code":"12","dept_name":"Region C"},"position":null,"hire_date":"2024-08-06","gender":null,"birthday":null,"verify_mode":0,"emp_type":null,"contact_tel":"","office_tel":null,"mobile":"","national":"","city":"","address":"","postcode":"","email":"","enroll_sn":"","ssn":null,"religion":"","attemployee":{"id":23,"enable_attendance":true,"enable_overtime":true,"enable_holiday":true,"enable_schedule":true},"dev_privilege":0,"area":[{"id":3,"area_code":"3","area_name":"AUTHORIZED AREA"}],"app_status":0,"app_role":1,"update_time":"2024-08-25 13:14:52","fingerprint":"Ver 10:1","face":"-","palm":"-","vl_face":"-","vl_palm":"-","vl_face_photo":"-"},{"id":24,"emp_code":"125","first_name":"Aminath Shathura","last_name":null,"nickname":"","format_name":"125 Aminath Shathura","photo":"","full_name":"Aminath Shathura ","device_password":null,"card_no":"6160693","department":{"id":9,"dept_code":"9","dept_name":"Destination Marketing"},"position":null,"hire_date":"2024-08-06","gender":null,"birthday":null,"verify_mode":0,"emp_type":null,"contact_tel":"","office_tel":null,"mobile":"","national":"","city":"","address":"","postcode":"","email":"","enroll_sn":"","ssn":null,"religion":"","attemployee":{"id":24,"enable_attendance":true,"enable_overtime":true,"enable_holiday":true,"enable_schedule":true},"dev_privilege":0,"area":[{"id":3,"area_code":"3","area_name":"AUTHORIZED AREA"}],"app_status":0,"app_role":1,"update_time":"2024-08-12 09:18:39","fingerprint":"Ver 10:1","face":"-","palm":"-","vl_face":"-","vl_palm":"-","vl_face_photo":"-"},{"id":25,"emp_code":"130","first_name":"Abdulla Azaan Zameel","last_name":null,"nickname":"","format_name":"130 Abdulla Azaan Zameel","photo":"","full_name":"Abdulla Azaan Zameel ","device_password":null,"card_no":"3873002","department":{"id":17,"dept_code":"17","dept_name":"Region A"},"position":null,"hire_date":"2024-08-06","gender":null,"birthday":null,"verify_mode":0,"emp_type":null,"contact_tel":"","office_tel":null,"mobile":"","national":"","city":"","address":"","postcode":"","email":"","enroll_sn":"","ssn":null,"religion":"","attemployee":{"id":25,"enable_attendance":true,"enable_overtime":true,"enable_holiday":true,"enable_schedule":true},"dev_privilege":0,"area":[{"id":3,"area_code":"3","area_name":"AUTHORIZED AREA"}],"app_status":0,"app_role":1,"update_time":"2024-12-19 16:38:43","fingerprint":"Ver 10:1","face":"-","palm":"-","vl_face":"-","vl_palm":"-","vl_face_photo":"-"},{"id":26,"emp_code":"132","first_name":"Suhaa Faheem","last_name":null,"nickname":"","format_name":"132 Suhaa Faheem","photo":"","full_name":"Suhaa Faheem ","device_password":null,"card_no":"3890530","department":{"id":21,"dept_code":"21","dept_name":"Region D"},"position":null,"hire_date":"2024-08-06","gender":null,"birthday":null,"verify_mode":0,"emp_type":null,"contact_tel":"","office_tel":null,"mobile":"","national":"","city":"","address":"","postcode":"","email":"","enroll_sn":"","ssn":null,"religion":"","attemployee":{"id":26,"enable_attendance":true,"enable_overtime":true,"enable_holiday":true,"enable_schedule":true},"dev_privilege":0,"area":[{"id":3,"area_code":"3","area_name":"AUTHORIZED AREA"}],"app_status":0,"app_role":1,"update_time":"2024-12-19 16:39:04","fingerprint":"Ver 10:1","face":"-","palm":"-","vl_face":"-","vl_palm":"-","vl_face_photo":"-"},{"id":27,"emp_code":"133","first_name":"Hanaan Ali Waheed","last_name":null,"nickname":"","format_name":"133 Hanaan Ali Waheed","photo":"","full_name":"Hanaan Ali Waheed ","device_password":null,"card_no":"2340854","department":{"id":17,"dept_code":"17","dept_name":"Region A"},"position":null,"hire_date":"2024-08-06","gender":null,"birthday":null,"verify_mode":0,"emp_type":null,"contact_tel":"","office_tel":null,"mobile":"","national":"","city":"","address":"","postcode":"","email":"","enroll_sn":"","ssn":null,"religion":"","attemployee":{"id":27,"enable_attendance":true,"enable_overtime":true,"enable_holiday":true,"enable_schedule":true},"dev_privilege":0,"area":[{"id":3,"area_code":"3","area_name":"AUTHORIZED AREA"}],"app_status":0,"app_role":1,"update_time":"2024-12-19 16:39:25","fingerprint":"Ver 10:1","face":"-","palm":"-","vl_face":"-","vl_palm":"-","vl_face_photo":"-"},{"id":28,"emp_code":"136","first_name":"Hassan Shaheel","last_name":null,"nickname":"","format_name":"136 Hassan Shaheel","photo":"","full_name":"Hassan Shaheel ","device_password":null,"card_no":"2340853","department":{"id":11,"dept_code":"11","dept_name":"HOD's"},"position":null,"hire_date":"2024-08-06","gender":null,"birthday":null,"verify_mode":0,"emp_type":null,"contact_tel":"","office_tel":null,"mobile":"","national":"","city":"","address":"","postcode":"","email":"","enroll_sn":"","ssn":null,"religion":"","attemployee":{"id":28,"enable_attendance":true,"enable_overtime":true,"enable_holiday":true,"enable_schedule":true},"dev_privilege":0,"area":[{"id":3,"area_code":"3","area_name":"AUTHORIZED AREA"}],"app_status":0,"app_role":1,"update_time":"2024-08-12 12:07:58","fingerprint":"Ver 10:1","face":"-","palm":"-","vl_face":"-","vl_palm":"-","vl_face_photo":"-"}]}