{"count":100,"next":"http://attendance.test/iclock/api/transactions/?end_time=2025-02-18+23%3A59%3A59&page=2&page_size=50&start_time=2025-02-18+00%3A01%3A00","previous":null,"msg":"","code":0,"data":[{"id":112775,"emp":3,"emp_code":"16","first_name":"Safee Mohamed","last_name":null,"department":"Administration","position":null,"punch_time":"2025-02-18 07:50:50","punch_state":"0","punch_state_display":"Check In","verify_type":1,"verify_type_display":"Fingerprint","work_code":"","gps_location":null,"area_alias":"AUTHORIZED AREA","terminal_sn":"BKPU193160010","temperature":0.0,"is_mask":"-","terminal_alias":"2nd Floor Attendance","upload_time":"2025-02-18 07:50:57"},{"id":112776,"emp":7,"emp_code":"49","first_name":"Fathimath Moosa","last_name":null,"department":"Administration","position":null,"punch_time":"2025-02-18 07:50:53","punch_state":"0","punch_state_display":"Check In","verify_type":2,"verify_type_display":"Employee ID","work_code":"","gps_location":null,"area_alias":"AUTHORIZED AREA","terminal_sn":"BKPU193160010","temperature":0.0,"is_mask":"-","terminal_alias":"2nd Floor Attendance","upload_time":"2025-02-18 07:51:00"},{"id":112777,"emp":20,"emp_code":"117","first_name":"Ammaru Ahmed Hussain","last_name":"","department":"HOD's","position":null,"punch_time":"2025-02-18 07:51:36","punch_state":"0","punch_state_display":"Check In","verify_type":2,"verify_type_display":"Employee ID","work_code":"","gps_location":null,"area_alias":"AUTHORIZED AREA","terminal_sn":"BKPU193160010","temperature":0.0,"is_mask":"-","terminal_alias":"2nd Floor Attendance","upload_time":"2025-02-18 07:51:43"},{"id":112778,"emp":31,"emp_code":"142","first_name":"Hawwa Zahira","last_name":null,"department":"Administration","position":null,"punch_time":"2025-02-18 07:56:01","punch_state":"0","punch_state_display":"Check In","verify_type":2,"verify_type_display":"Employee ID","work_code":"","gps_location":null,"area_alias":"AUTHORIZED AREA","terminal_sn":"BKPU193160010","temperature":0.0,"is_mask":"-","terminal_alias":"2nd Floor Attendance","upload_time":"2025-02-18 07:56:08"},{"id":112779,"emp":29,"emp_code":"137","first_name":"Fathimath Suzana","last_name":null,"department":"Finance","position":null,"punch_time":"2025-02-18 08:05:14","punch_state":"0","punch_state_display":"Check In","verify_type":2,"verify_type_display":"Employee ID","work_code":"","gps_location":null,"area_alias":"AUTHORIZED AREA","terminal_sn":"BKPU193160010","temperature":0.0,"is_mask":"-","terminal_alias":"2nd Floor Attendance","upload_time":"2025-02-18 08:05:21"},{"id":112780,"emp":58,"emp_code":"180","first_name":"Aishath Amany Hassan","last_name":null,"department":"Content Management","position":null,"punch_time":"2025-02-18 08:07:56","punch_state":"0","punch_state_display":"Check In","verify_type":2,"verify_type_display":"Employee ID","work_code":"","gps_location":null,"area_alias":"AUTHORIZED AREA","terminal_sn":"BKPU193160010","temperature":0.0,"is_mask":"-","terminal_alias":"2nd Floor Attendance","upload_time":"2025-02-18 08:08:03"},{"id":112781,"emp":72,"emp_code":"194","first_name":"Samaah Zahir","last_name":null,"department":"Administration","position":null,"punch_time":"2025-02-18 08:10:06","punch_state":"0","punch_state_display":"Check In","verify_type":2,"verify_type_display":"Employee ID","work_code":"","gps_location":null,"area_alias":"AUTHORIZED AREA","terminal_sn":"BKPU193160010","temperature":0.0,"is_mask":"-","terminal_alias":"2nd Floor Attendance","upload_time":"2025-02-18 08:10:13"},{"id":112782,"emp":47,"emp_code":"166","first_name":"Shamoon Adam","last_name":null,"department":"HOD's","position":null,"punch_time":"2025-02-18 08:13:03","punch_state":"0","punch_state_display":"Check In","verify_type":1,"verify_type_display":"Fingerprint","work_code":"","gps_location":null,"area_alias":"AUTHORIZED AREA","terminal_sn":"BKPU183460045","temperature":0.0,"is_mask":"-","terminal_alias":"4th Floor - Attendance","upload_time":"2025-02-18 08:13:04"},{"id":112783,"emp":69,"emp_code":"191","first_name":"Mariyam Shamseena","last_name":null,"department":"HOD's","position":null,"punch_time":"2025-02-18 08:15:09","punch_state":"0","punch_state_display":"Check In","verify_type":2,"verify_type_display":"Employee ID","work_code":"","gps_location":null,"area_alias":"AUTHORIZED AREA","terminal_sn":"BKPU193160010","temperature":0.0,"is_mask":"-","terminal_alias":"2nd Floor Attendance","upload_time":"2025-02-18 08:15:16"},{"id":112784,"emp":24,"emp_code":"125","first_name":"Aminath Shathura","last_name":null,"department":"Destination Marketing","position":null,"punch_time":"2025-02-18 08:16:13","punch_state":"0","punch_state_display":"Check In","verify_type":2,"verify_type_display":"Employee ID","work_code":"","gps_location":null,"area_alias":"AUTHORIZED AREA","terminal_sn":"BKPU193160010","temperature":0.0,"is_mask":"-","terminal_alias":"2nd Floor Attendance","upload_time":"2025-02-18 08:16:20"},{"id":112785,"emp":41,"emp_code":"158","first_name":"Fathimath Noor Mohamed","last_name":null,"department":"Administration","position":null,"punch_time":"2025-02-18 08:16:25","punch_state":"0","punch_state_display":"Check In","verify_type":2,"verify_type_display":"Employee ID","work_code":"","gps_location":null,"area_alias":"AUTHORIZED AREA","terminal_sn":"BKPU193160010","temperature":0.0,"is_mask":"-","terminal_alias":"2nd Floor Attendance","upload_time":"2025-02-18 08:16:31"},{"id":112786,"emp":78,"emp_code":"207","first_name":"Fathimath Lamha Saudulla","last_name":null,"department":"Business Development","position":null,"punch_time":"2025-02-18 08:16:48","punch_state":"0","punch_state_display":"Check In","verify_type":2,"verify_type_display":"Employee ID","work_code":"","gps_location":null,"area_alias":"AUTHORIZED AREA","terminal_sn":"BKPU183460045","temperature":0.0,"is_mask":"-","terminal_alias":"4th Floor - Attendance","upload_time":"2025-02-18 08:16:49"},{"id":112787,"emp":77,"emp_code":"206","first_name":"Aminath Noora","last_name":null,"department":"Business Development","position":null,"punch_time":"2025-02-18 08:17:07","punch_state":"0","punch_state_display":"Check In","verify_type":1,"verify_type_display":"Fingerprint","work_code":"","gps_location":null,"area_alias":"AUTHORIZED AREA","terminal_sn":"BKPU183460045","temperature":0.0,"is_mask":"-","terminal_alias":"4th Floor - Attendance","upload_time":"2025-02-18 08:17:08"},{"id":112788,"emp":6,"emp_code":"44","first_name":"Aminath Shahiya","last_name":null,"department":"Procurement","position":null,"punch_time":"2025-02-18 08:20:01","punch_state":"0","punch_state_display":"Check In","verify_type":1,"verify_type_display":"Fingerprint","work_code":"","gps_location":null,"area_alias":"AUTHORIZED AREA","terminal_sn":"BKPU183460045","temperature":0.0,"is_mask":"-","terminal_alias":"4th Floor - Attendance","upload_time":"2025-02-18 08:20:03"},{"id":112789,"emp":19,"emp_code":"113","first_name":"Hawwa Haseena","last_name":null,"department":"HOD's","position":null,"punch_time":"2025-02-18 08:22:16","punch_state":"0","punch_state_display":"Check In","verify_type":1,"verify_type_display":"Fingerprint","work_code":"","gps_location":null,"area_alias":"AUTHORIZED AREA","terminal_sn":"BKPU193160010","temperature":0.0,"is_mask":"-","terminal_alias":"2nd Floor Attendance","upload_time":"2025-02-18 08:22:23"},{"id":112790,"emp":67,"emp_code":"189","first_name":"Aishath Sham'aa","last_name":null,"department":"Planning and Coordination","position":null,"punch_time":"2025-02-18 08:23:28","punch_state":"0","punch_state_display":"Check In","verify_type":2,"verify_type_display":"Employee ID","work_code":"","gps_location":null,"area_alias":"AUTHORIZED AREA","terminal_sn":"BKPU193160010","temperature":0.0,"is_mask":"-","terminal_alias":"2nd Floor Attendance","upload_time":"2025-02-18 08:23:35"},{"id":112791,"emp":50,"emp_code":"171","first_name":"Ahmed Rauhaan","last_name":null,"department":"Business Development","position":null,"punch_time":"2025-02-18 08:23:34","punch_state":"0","punch_state_display":"Check In","verify_type":1,"verify_type_display":"Fingerprint","work_code":"","gps_location":null,"area_alias":"AUTHORIZED AREA","terminal_sn":"BKPU183460045","temperature":0.0,"is_mask":"-","terminal_alias":"4th Floor - Attendance","upload_time":"2025-02-18 08:23:35"},{"id":112792,"emp":25,"emp_code":"130","first_name":"Abdulla Azaan Zameel","last_name":null,"department":"Region A","position":null,"punch_time":"2025-02-18 08:24:23","punch_state":"0","punch_state_display":"Check In","verify_type":2,"verify_type_display":"Employee ID","work_code":"","gps_location":null,"area_alias":"AUTHORIZED AREA","terminal_sn":"BKPU193160010","temperature":0.0,"is_mask":"-","terminal_alias":"2nd Floor Attendance","upload_time":"2025-02-18 08:24:30"},{"id":112793,"emp":74,"emp_code":"196","first_name":"Mariyam Meesha Adam","last_name":null,"department":"Social Media","position":null,"punch_time":"2025-02-18 08:25:55","punch_state":"0","punch_state_display":"Check In","verify_type":2,"verify_type_display":"Employee ID","work_code":"","gps_location":null,"area_alias":"AUTHORIZED AREA","terminal_sn":"BKPU193160010","temperature":0.0,"is_mask":"-","terminal_alias":"2nd Floor Attendance","upload_time":"2025-02-18 08:26:02"},{"id":112794,"emp":16,"emp_code":"91","first_name":"Ahmed Saaif","last_name":null,"department":"Procurement","position":null,"punch_time":"2025-02-18 08:27:02","punch_state":"0","punch_state_display":"Check In","verify_type":2,"verify_type_display":"Employee ID","work_code":"","gps_location":null,"area_alias":"AUTHORIZED AREA","terminal_sn":"BKPU193160010","temperature":0.0,"is_mask":"-","terminal_alias":"2nd Floor Attendance","upload_time":"2025-02-18 08:27:09"},{"id":112795,"emp":66,"emp_code":"188","first_name":"Mohamed Afzal","last_name":null,"department":"Designing","position":null,"punch_time":"2025-02-18 08:29:32","punch_state":"0","punch_state_display":"Check In","verify_type":2,"verify_type_display":"Employee ID","work_code":"","gps_location":null,"area_alias":"AUTHORIZED AREA","terminal_sn":"BKPU193160010","temperature":0.0,"is_mask":"-","terminal_alias":"2nd Floor Attendance","upload_time":"2025-02-18 08:29:39"},{"id":112796,"emp":8,"emp_code":"67","first_name":"Fathimath Afiya","last_name":null,"department":"Human Resources","position":null,"punch_time":"2025-02-18 08:32:06","punch_state":"0","punch_state_display":"Check In","verify_type":2,"verify_type_display":"Employee ID","work_code":"","gps_location":null,"area_alias":"AUTHORIZED AREA","terminal_sn":"BKPU193160010","temperature":0.0,"is_mask":"-","terminal_alias":"2nd Floor Attendance","upload_time":"2025-02-18 08:32:13"},{"id":112797,"emp":2,"emp_code":"12","first_name":"Aminath Lamsa","last_name":null,"department":"Administration","position":null,"punch_time":"2025-02-18 08:33:29","punch_state":"0","punch_state_display":"Check In","verify_type":1,"verify_type_display":"Fingerprint","work_code":"","gps_location":null,"area_alias":"AUTHORIZED AREA","terminal_sn":"BKPU193160010","temperature":0.0,"is_mask":"-","terminal_alias":"2nd Floor Attendance","upload_time":"2025-02-18 08:33:36"},{"id":112798,"emp":44,"emp_code":"162","first_name":"Mohamed Rifhaan","last_name":null,"department":"Finance","position":null,"punch_time":"2025-02-18 08:35:25","punch_state":"0","punch_state_display":"Check In","verify_type":2,"verify_type_display":"Employee ID","work_code":"","gps_location":null,"area_alias":"AUTHORIZED AREA","terminal_sn":"BKPU183460045","temperature":0.0,"is_mask":"-","terminal_alias":"4th Floor - Attendance","upload_time":"2025-02-18 08:35:26"},{"id":112799,"emp":45,"emp_code":"164","first_name":"Mohamed Michael Ahmed","last_name":null,"department":"Region C","position":null,"punch_time":"2025-02-18 08:37:25","punch_state":"0","punch_state_display":"Check In","verify_type":1,"verify_type_display":"Fingerprint","work_code":"","gps_location":null,"area_alias":"AUTHORIZED AREA","terminal_sn":"BKPU193160010","temperature":0.0,"is_mask":"-","terminal_alias":"2nd Floor Attendance","upload_time":"2025-02-18 08:37:31"},{"id":112800,"emp":54,"emp_code":"176","first_name":"Asra Naseem","last_name":null,"department":"BD Head","position":null,"punch_time":"2025-02-18 08:38:00","punch_state":"0","punch_state_display":"Check In","verify_type":2,"verify_type_display":"Employee ID","work_code":"","gps_location":null,"area_alias":"AUTHORIZED AREA","terminal_sn":"BKPU183460045","temperature":0.0,"is_mask":"-","terminal_alias":"4th Floor - Attendance","upload_time":"2025-02-18 08:38:02"},{"id":112801,"emp":36,"emp_code":"149","first_name":"Aminath Faihaa Waheed","last_name":null,"department":"Administration","position":null,"punch_time":"2025-02-18 08:39:09","punch_state":"0","punch_state_display":"Check In","verify_type":2,"verify_type_display":"Employee ID","work_code":"","gps_location":null,"area_alias":"AUTHORIZED AREA","terminal_sn":"BKPU193160010","temperature":0.0,"is_mask":"-","terminal_alias":"2nd Floor Attendance","upload_time":"2025-02-18 08:39:16"},{"id":112802,"emp":5,"emp_code":"31","first_name":"Ali Shaheed","last_name":null,"department":"Finance","position":null,"punch_time":"2025-02-18 08:40:00","punch_state":"0","punch_state_display":"Check In","verify_type":2,"verify_type_display":"Employee ID","work_code":"","gps_location":null,"area_alias":"AUTHORIZED AREA","terminal_sn":"BKPU193160010","temperature":0.0,"is_mask":"-","terminal_alias":"2nd Floor Attendance","upload_time":"2025-02-18 08:40:08"},{"id":112803,"emp":23,"emp_code":"124","first_name":"Aishath Shirufath Ali","last_name":null,"department":"Region C","position":null,"punch_time":"2025-02-18 08:40:02","punch_state":"0","punch_state_display":"Check In","verify_type":2,"verify_type_display":"Employee ID","work_code":"","gps_location":null,"area_alias":"AUTHORIZED AREA","terminal_sn":"BKPU193160010","temperature":0.0,"is_mask":"-","terminal_alias":"2nd Floor Attendance","upload_time":"2025-02-18 08:40:10"},{"id":112804,"emp":37,"emp_code":"150","first_name":"Ismail Niyaz","last_name":null,"department":"Information Technology","position":null,"punch_time":"2025-02-18 08:41:29","punch_state":"0","punch_state_display":"Check In","verify_type":2,"verify_type_display":"Employee ID","work_code":"","gps_location":null,"area_alias":"AUTHORIZED AREA","terminal_sn":"BKPU193160010","temperature":0.0,"is_mask":"-","terminal_alias":"2nd Floor Attendance","upload_time":"2025-02-18 08:41:36"},{"id":112805,"emp":38,"emp_code":"151","first_name":"Aishath Shajna Shafeeq","last_name":null,"department":"Legal and Compliance","position":null,"punch_time":"2025-02-18 08:42:09","punch_state":"0","punch_state_display":"Check In","verify_type":2,"verify_type_display":"Employee ID","work_code":"","gps_location":null,"area_alias":"AUTHORIZED AREA","terminal_sn":"BKPU183460045","temperature":0.0,"is_mask":"-","terminal_alias":"4th Floor - Attendance","upload_time":"2025-02-18 08:42:11"},{"id":112806,"emp":14,"emp_code":"84","first_name":"Moosa Nadheem","last_name":null,"department":"Procurement","position":null,"punch_time":"2025-02-18 08:42:17","punch_state":"0","punch_state_display":"Check In","verify_type":1,"verify_type_display":"Fingerprint","work_code":"","gps_location":null,"area_alias":"AUTHORIZED AREA","terminal_sn":"BKPU193160010","temperature":0.0,"is_mask":"-","terminal_alias":"2nd Floor Attendance","upload_time":"2025-02-18 08:42:23"},{"id":112807,"emp":32,"emp_code":"144","first_name":"Saaly Rameez","last_name":null,"department":"Finance","position":null,"punch_time":"2025-02-18 08:43:29","punch_state":"0","punch_state_display":"Check In","verify_type":1,"verify_type_display":"Fingerprint","work_code":"","gps_location":null,"area_alias":"AUTHORIZED AREA","terminal_sn":"BKPU183460045","temperature":0.0,"is_mask":"-","terminal_alias":"4th Floor - Attendance","upload_time":"2025-02-18 08:43:30"},{"id":112808,"emp":17,"emp_code":"98","first_name":"Athik Mohamed","last_name":null,"department":"Procurement","position":null,"punch_time":"2025-02-18 08:43:28","punch_state":"0","punch_state_display":"Check In","verify_type":2,"verify_type_display":"Employee ID","work_code":"","gps_location":null,"area_alias":"AUTHORIZED AREA","terminal_sn":"BKPU193160010","temperature":0.0,"is_mask":"-","terminal_alias":"2nd Floor Attendance","upload_time":"2025-02-18 08:43:35"},{"id":112809,"emp":39,"emp_code":"154","first_name":"Hassan Rahshaan Mohamed","last_name":null,"department":"Human Resources","position":null,"punch_time":"2025-02-18 08:44:16","punch_state":"0","punch_state_display":"Check In","verify_type":1,"verify_type_display":"Fingerprint","work_code":"","gps_location":null,"area_alias":"AUTHORIZED AREA","terminal_sn":"BKPU193160010","temperature":0.0,"is_mask":"-","terminal_alias":"2nd Floor Attendance","upload_time":"2025-02-18 08:44:22"},{"id":112810,"emp":15,"emp_code":"86","first_name":"Mohamed Ziyad","last_name":null,"department":"Finance","position":null,"punch_time":"2025-02-18 08:45:19","punch_state":"0","punch_state_display":"Check In","verify_type":1,"verify_type_display":"Fingerprint","work_code":"","gps_location":null,"area_alias":"AUTHORIZED AREA","terminal_sn":"BKPU193160010","temperature":0.0,"is_mask":"-","terminal_alias":"2nd Floor Attendance","upload_time":"2025-02-18 08:45:26"},{"id":112811,"emp":68,"emp_code":"190","first_name":"Ibrahim Saamee","last_name":null,"department":"Finance","position":null,"punch_time":"2025-02-18 08:46:41","punch_state":"0","punch_state_display":"Check In","verify_type":1,"verify_type_display":"Fingerprint","work_code":"","gps_location":null,"area_alias":"AUTHORIZED AREA","terminal_sn":"BKPU183460045","temperature":0.0,"is_mask":"-","terminal_alias":"4th Floor - Attendance","upload_time":"2025-02-18 08:46:43"},{"id":112812,"emp":73,"emp_code":"195","first_name":"Hussain Waheedh","last_name":null,"department":"Digital Marketing","position":null,"punch_time":"2025-02-18 08:48:17","punch_state":"0","punch_state_display":"Check In","verify_type":1,"verify_type_display":"Fingerprint","work_code":"","gps_location":null,"area_alias":"AUTHORIZED AREA","terminal_sn":"BKPU193160010","temperature":0.0,"is_mask":"-","terminal_alias":"2nd Floor Attendance","upload_time":"2025-02-18 08:48:25"},{"id":112813,"emp":76,"emp_code":"205","first_name":"Aminath Zaina Ahmed","last_name":null,"department":"HOD's","position":null,"punch_time":"2025-02-18 08:49:09","punch_state":"0","punch_state_display":"Check In","verify_type":1,"verify_type_display":"Fingerprint","work_code":"","gps_location":null,"area_alias":"AUTHORIZED AREA","terminal_sn":"BKPU193160010","temperature":0.0,"is_mask":"-","terminal_alias":"2nd Floor Attendance","upload_time":"2025-02-18 08:49:16"},{"id":112814,"emp":57,"emp_code":"179","first_name":"Akram Nafees","last_name":null,"department":"Administration","position":null,"punch_time":"2025-02-18 08:49:14","punch_state":"0","punch_state_display":"Check In","verify_type":2,"verify_type_display":"Employee ID","work_code":"","gps_location":null,"area_alias":"AUTHORIZED AREA","terminal_sn":"BKPU193160010","temperature":0.0,"is_mask":"-","terminal_alias":"2nd Floor Attendance","upload_time":"2025-02-18 08:49:21"},{"id":112815,"emp":62,"emp_code":"184","first_name":"Aishath Manaal Ibrahim","last_name":null,"department":"Region D","position":null,"punch_time":"2025-02-18 08:52:15","punch_state":"0","punch_state_display":"Check In","verify_type":2,"verify_type_display":"Employee ID","work_code":"","gps_location":null,"area_alias":"AUTHORIZED AREA","terminal_sn":"BKPU193160010","temperature":0.0,"is_mask":"-","terminal_alias":"2nd Floor Attendance","upload_time":"2025-02-18 08:52:22"},{"id":112816,"emp":40,"emp_code":"155","first_name":"Mariyam Raushan","last_name":null,"department":"Human Resources","position":null,"punch_time":"2025-02-18 08:52:21","punch_state":"0","punch_state_display":"Check In","verify_type":1,"verify_type_display":"Fingerprint","work_code":"","gps_location":null,"area_alias":"AUTHORIZED AREA","terminal_sn":"BKPU193160010","temperature":0.0,"is_mask":"-","terminal_alias":"2nd Floor Attendance","upload_time":"2025-02-18 08:52:28"},{"id":112817,"emp":4,"emp_code":"18","first_name":"Fathimath Reesha Rasheed","last_name":null,"department":"Destination Marketing","position":null,"punch_time":"2025-02-18 08:52:48","punch_state":"0","punch_state_display":"Check In","verify_type":1,"verify_type_display":"Fingerprint","work_code":"","gps_location":null,"area_alias":"AUTHORIZED AREA","terminal_sn":"BKPU193160010","temperature":0.0,"is_mask":"-","terminal_alias":"2nd Floor Attendance","upload_time":"2025-02-18 08:52:54"},{"id":112818,"emp":49,"emp_code":"169","first_name":"Sabeeha Ahmed","last_name":null,"department":"Executive","position":null,"punch_time":"2025-02-18 08:53:30","punch_state":"0","punch_state_display":"Check In","verify_type":2,"verify_type_display":"Employee ID","work_code":"","gps_location":null,"area_alias":"AUTHORIZED AREA","terminal_sn":"BKPU193160010","temperature":0.0,"is_mask":"-","terminal_alias":"2nd Floor Attendance","upload_time":"2025-02-18 08:53:37"},{"id":112819,"emp":56,"emp_code":"178","first_name":"Mohamed Nazeef","last_name":null,"department":"Designing","position":null,"punch_time":"2025-02-18 08:54:06","punch_state":"0","punch_state_display":"Check In","verify_type":2,"verify_type_display":"Employee ID","work_code":"","gps_location":null,"area_alias":"AUTHORIZED AREA","terminal_sn":"BKPU193160010","temperature":0.0,"is_mask":"-","terminal_alias":"2nd Floor Attendance","upload_time":"2025-02-18 08:54:13"},{"id":112820,"emp":60,"emp_code":"182","first_name":"Abdulla Riza","last_name":null,"department":"Digital Marketing","position":null,"punch_time":"2025-02-18 08:58:09","punch_state":"0","punch_state_display":"Check In","verify_type":1,"verify_type_display":"Fingerprint","work_code":"","gps_location":null,"area_alias":"AUTHORIZED AREA","terminal_sn":"BKPU193160010","temperature":0.0,"is_mask":"-","terminal_alias":"2nd Floor Attendance","upload_time":"2025-02-18 08:58:16"},{"id":112821,"emp":75,"emp_code":"202","first_name":"Ibrahim Aheedh Easa","last_name":null,"department":"Designing","position":null,"punch_time":"2025-02-18 09:02:46","punch_state":"0","punch_state_display":"Check In","verify_type":2,"verify_type_display":"Employee ID","work_code":"","gps_location":null,"area_alias":"AUTHORIZED AREA","terminal_sn":"BKPU193160010","temperature":0.0,"is_mask":"-","terminal_alias":"2nd Floor Attendance","upload_time":"2025-02-18 09:02:53"},{"id":112822,"emp":55,"emp_code":"177","first_name":"Nisreen Mohamed","last_name":null,"department":"Legal and Compliance","position":null,"punch_time":"2025-02-18 10:34:46","punch_state":"0","punch_state_display":"Check In","verify_type":1,"verify_type_display":"Fingerprint","work_code":"","gps_location":null,"area_alias":"AUTHORIZED AREA","terminal_sn":"BKPU183460045","temperature":0.0,"is_mask":"-","terminal_alias":"4th Floor - Attendance","upload_time":"2025-02-18 10:34:47"},{"id":112823,"emp":20,"emp_code":"117","first_name":"Ammaru Ahmed Hussain","last_name":"","department":"HOD's","position":null,"punch_time":"2025-02-18 12:03:07","punch_state":"2","punch_state_display":"Break Out","verify_type":2,"verify_type_display":"Employee ID","work_code":"","gps_location":null,"area_alias":"AUTHORIZED AREA","terminal_sn":"BKPU193160010","temperature":0.0,"is_mask":"-","terminal_alias":"2nd Floor Attendance","upload_time":"2025-02-18 12:03:14"},{"id":112824,"emp":39,"emp_code":"154","first_name":"Hassan Rahshaan Mohamed","last_name":null,"department":"Human Resources","position":null,"punch_time":"2025-02-18 12:34:29","punch_state":"2","punch_state_display":"Break Out","verify_type":1,"verify_type_display":"Fingerprint","work_code":"","gps_location":null,"area_alias":"AUTHORIZED AREA","terminal_sn":"BKPU193160010","temperature":0.0,"is_mask":"-","terminal_alias":"2nd Floor Attendance","upload_time":"2025-02-18 12:34:37"}]}